\babel@toc {greek}{}
\babel@toc {greek}{}
\babel@toc {english}{}
\babel@toc {greek}{}
\babel@toc {english}{}
\babel@toc {greek}{}
\babel@toc {english}{}
\babel@toc {greek}{}
\babel@toc {greek}{}
\contentsline {chapter}{\numberline {1}Εισαγωγή}{1}{chapter.1}% 
\contentsline {section}{\numberline {1.1}Απώλεια διαδρομής: Η φύση του προβλήματος}{1}{section.1.1}% 
\contentsline {section}{\numberline {1.2}Στόχος εργασίας}{1}{section.1.2}% 
\contentsline {section}{\numberline {1.3}Σύνοψη κεφαλαίων}{2}{section.1.3}% 
\contentsline {chapter}{\numberline {2}Μηχανική Μάθηση}{3}{chapter.2}% 
\contentsline {section}{\numberline {2.1}Βασικές πληροφορίες μηχανικής μάθησης}{3}{section.2.1}% 
\contentsline {section}{\numberline {2.2}Τύποι μηχανικής μάθησης}{4}{section.2.2}% 
\babel@toc {english}{}
\babel@toc {greek}{}
\babel@toc {english}{}
\babel@toc {greek}{}
\babel@toc {english}{}
\babel@toc {greek}{}
\babel@toc {english}{}
\babel@toc {greek}{}
\babel@toc {english}{}
\babel@toc {greek}{}
\babel@toc {greek}{}
\contentsline {subsection}{\numberline {2.2.1}Επιτηρούμενη μηχανική μάθηση}{5}{subsection.2.2.1}% 
\babel@toc {greek}{}
\contentsline {subsubsection}{Ταξινόμηση (Classification)}{6}{subsection.2.2.1}% 
\babel@toc {greek}{}
\babel@toc {english}{}
\babel@toc {greek}{}
\babel@toc {english}{}
\babel@toc {greek}{}
\babel@toc {english}{}
\babel@toc {greek}{}
\contentsline {subsubsection}{Παλινδρόμηση (Regression)}{7}{figure.2.2.1.1}% 
\babel@toc {english}{}
\babel@toc {greek}{}
\contentsline {subsection}{\numberline {2.2.2}Μη επιτηρούμενη μάθηση}{7}{subsection.2.2.2}% 
\babel@toc {english}{}
\babel@toc {greek}{}
\babel@toc {english}{}
\babel@toc {greek}{}
\babel@toc {english}{}
\babel@toc {greek}{}
\babel@toc {english}{}
\babel@toc {greek}{}
\babel@toc {english}{}
\babel@toc {greek}{}
\babel@toc {english}{}
\babel@toc {greek}{}
\babel@toc {english}{}
\babel@toc {greek}{}
\babel@toc {english}{}
\babel@toc {greek}{}
\babel@toc {english}{}
\babel@toc {greek}{}
\babel@toc {english}{}
\babel@toc {greek}{}
\contentsline {subsection}{\numberline {2.2.3}Ημι-επιτηρούμενη μάθηση}{11}{subsection.2.2.3}% 
\babel@toc {english}{}
\babel@toc {greek}{}
\babel@toc {english}{}
\babel@toc {greek}{}
\babel@toc {english}{}
\babel@toc {greek}{}
\babel@toc {english}{}
\babel@toc {greek}{}
\babel@toc {english}{}
\babel@toc {greek}{}
\babel@toc {english}{}
\babel@toc {greek}{}
\contentsline {subsection}{\numberline {2.2.4}Ενισχυτική μάθηση}{11}{subsection.2.2.4}% 
\babel@toc {english}{}
\babel@toc {greek}{}
\contentsline {section}{\numberline {2.3}Προκλήσεις στη μηχανική μάθηση}{12}{section.2.3}% 
\contentsline {subsection}{\numberline {2.3.1}Ανεπαρκές πλήθος δεδομένων εκπαίδευσης}{13}{subsection.2.3.1}% 
\contentsline {subsection}{\numberline {2.3.2}Κακή ποιότητα δεδομένων}{13}{subsection.2.3.2}% 
\contentsline {subsection}{\numberline {2.3.3}Δεδομένα εκπαίδευσης που δεν είναι αντιπροσωπευτικά}{13}{subsection.2.3.3}% 
\babel@toc {english}{}
\babel@toc {greek}{}
\contentsline {subsection}{\numberline {2.3.4}Επιλογή άσχετων χαρακτηριστικών στα δεδομένα εκπαίδευσης}{15}{subsection.2.3.4}% 
\contentsline {subsection}{\numberline {2.3.5}Υπερπροσαρμογή των δεδομένων εκπαίδευσης}{15}{subsection.2.3.5}% 
\babel@toc {english}{}
\babel@toc {greek}{}
\contentsline {subsection}{\numberline {2.3.6}Υπoπροσαρμογή των δεδομένων εκπαίδευσης}{15}{subsection.2.3.6}% 
\contentsline {chapter}{\numberline {3}Γλώσσα Προγραμματισμού Python και Μηχανική Μάθηση}{17}{chapter.3}% 
\contentsline {section}{\numberline {3.1}Βασικές πληροφορίες για την Python}{17}{section.3.1}% 
\contentsline {section}{\numberline {3.2}Scikit-learn}{18}{section.3.2}% 
\babel@toc {english}{}
\babel@toc {greek}{}
\babel@toc {english}{}
\babel@toc {greek}{}
\babel@toc {english}{}
\babel@toc {greek}{}
\babel@toc {english}{}
\babel@toc {greek}{}
\babel@toc {english}{}
\babel@toc {greek}{}
\babel@toc {english}{}
\babel@toc {greek}{}
\contentsline {section}{\numberline {3.3}Numerical Python (Numpy)}{18}{section.3.3}% 
\babel@toc {english}{}
\babel@toc {greek}{}
\babel@toc {english}{}
\babel@toc {greek}{}
\babel@toc {english}{}
\babel@toc {greek}{}
\contentsline {section}{\numberline {3.4}Scientific Python (Scipy)}{18}{section.3.4}% 
\babel@toc {english}{}
\babel@toc {greek}{}
\babel@toc {english}{}
\babel@toc {greek}{}
\babel@toc {english}{}
\babel@toc {greek}{}
\babel@toc {english}{}
\babel@toc {greek}{}
\contentsline {section}{\numberline {3.5}Pandas}{18}{section.3.5}% 
\contentsline {section}{\numberline {3.6}Matplotlib}{19}{section.3.6}% 
\contentsline {section}{\numberline {3.7}Tensorflow}{19}{section.3.7}% 
\babel@toc {english}{}
\babel@toc {greek}{}
\babel@toc {english}{}
\babel@toc {greek}{}
\babel@toc {english}{}
\babel@toc {greek}{}
\contentsline {chapter}{\numberline {4}Επεξεργασία Δεδομένων}{21}{chapter.4}% 
\contentsline {section}{\numberline {4.1}Συλλογή δεδομένων}{21}{section.4.1}% 
\babel@toc {english}{}
\babel@toc {greek}{}
\contentsline {section}{\numberline {4.2}Προεπεξεργασία δεδομένων}{21}{section.4.2}% 
\contentsline {subsection}{\numberline {4.2.1}Διαίρεση σετ δεδομένων}{21}{subsection.4.2.1}% 
\babel@toc {english}{}
\babel@toc {greek}{}
\babel@toc {english}{}
\babel@toc {greek}{}
\babel@toc {english}{}
\babel@toc {greek}{}
\babel@toc {english}{}
\babel@toc {greek}{}
\contentsline {subsection}{\numberline {4.2.2}Εξισορρόπηση χαρακτηριστικών}{22}{subsection.4.2.2}% 
\babel@toc {english}{}
\babel@toc {greek}{}
\babel@toc {english}{}
\babel@toc {greek}{}
\babel@toc {english}{}
\babel@toc {greek}{}
\contentsline {section}{\numberline {4.3}Δείκτες αξιολόγησης}{22}{section.4.3}% 
\babel@toc {english}{}
\babel@toc {english}{}
\babel@toc {greek}{}
\babel@toc {greek}{}
\babel@toc {greek}{}
\contentsline {chapter}{\numberline {5}Αλγόριθμοι που Μελετήθηκαν}{25}{chapter.5}% 
\contentsline {section}{\numberline {5.1}Εισαγωγή}{25}{section.5.1}% 
\babel@toc {english}{}
\babel@toc {greek}{}
\contentsline {section}{\numberline {5.2}k nearest neighbors (knn)}{25}{section.5.2}% 
\contentsline {subsection}{\numberline {5.2.1}Εισαγωγή}{25}{subsection.5.2.1}% 
\babel@toc {english}{}
\babel@toc {greek}{}
\babel@toc {english}{}
\babel@toc {greek}{}
\babel@toc {greek}{}
\babel@toc {english}{}
\babel@toc {greek}{}
\babel@toc {english}{}
\babel@toc {greek}{}
\contentsline {subsection}{\numberline {5.2.2}Πλεονεκτήματα και περιορισμοί}{27}{subsection.5.2.2}% 
\babel@toc {english}{}
\babel@toc {greek}{}
\babel@toc {english}{}
\babel@toc {greek}{}
\contentsline {section}{\numberline {5.3}Adaptive Boost (AdaBoost)}{28}{section.5.3}% 
\contentsline {subsection}{\numberline {5.3.1}Εισαγωγή}{28}{subsection.5.3.1}% 
\babel@toc {english}{}
\babel@toc {greek}{}
\babel@toc {english}{}
\babel@toc {greek}{}
\babel@toc {english}{}
\babel@toc {greek}{}
\contentsline {subsection}{\numberline {5.3.2}Πλεονεκτήματα και περιορισμοί}{28}{subsection.5.3.2}% 
\babel@toc {english}{}
\babel@toc {greek}{}
\babel@toc {english}{}
\babel@toc {greek}{}
\babel@toc {english}{}
\babel@toc {greek}{}
\babel@toc {english}{}
\babel@toc {greek}{}
\babel@toc {english}{}
\babel@toc {greek}{}
\contentsline {subsection}{\numberline {5.3.3}Βασικές παράμετροι}{29}{subsection.5.3.3}% 
\babel@toc {english}{}
\babel@toc {english}{}
\babel@toc {english}{}
\babel@toc {english}{}
\babel@toc {greek}{}
\babel@toc {english}{}
\babel@toc {greek}{}
\babel@toc {greek}{}
\babel@toc {english}{}
\babel@toc {greek}{}
\babel@toc {english}{}
\babel@toc {greek}{}
\babel@toc {greek}{}
\babel@toc {english}{}
\babel@toc {greek}{}
\babel@toc {greek}{}
\babel@toc {greek}{}
\babel@toc {greek}{}
\babel@toc {english}{}
\babel@toc {greek}{}
\babel@toc {greek}{}
\babel@toc {english}{}
\babel@toc {english}{}
\contentsline {section}{\numberline {5.4}Gradient tree boosting}{29}{section.5.4}% 
\contentsline {subsection}{\numberline {5.4.1}Εισαγωγή}{29}{subsection.5.4.1}% 
\babel@toc {english}{}
\babel@toc {greek}{}
\babel@toc {english}{}
\babel@toc {greek}{}
\babel@toc {english}{}
\babel@toc {greek}{}
\babel@toc {english}{}
\babel@toc {greek}{}
\babel@toc {english}{}
\babel@toc {greek}{}
\contentsline {subsection}{\numberline {5.4.2}Πλεονεκτήματα και περιορισμοί}{29}{subsection.5.4.2}% 
\contentsline {subsection}{\numberline {5.4.3}Βασικές παράμετροι}{30}{subsection.5.4.3}% 
\babel@toc {english}{}
\babel@toc {greek}{}
\babel@toc {english}{}
\babel@toc {greek}{}
\babel@toc {english}{}
\babel@toc {greek}{}
\babel@toc {english}{}
\babel@toc {greek}{}
\contentsline {section}{\numberline {5.5}Random Forest}{30}{section.5.5}% 
\contentsline {subsection}{\numberline {5.5.1}Εισαγωγή}{30}{subsection.5.5.1}% 
\babel@toc {english}{}
\babel@toc {english}{}
\babel@toc {greek}{}
\babel@toc {english}{}
\babel@toc {greek}{}
\babel@toc {english}{}
\babel@toc {greek}{}
\babel@toc {english}{}
\babel@toc {english}{}
\babel@toc {greek}{}
\contentsline {subsection}{\numberline {5.5.2}Πλεονεκτήματα και περιορισμοί}{30}{subsection.5.5.2}% 
\contentsline {subsection}{\numberline {5.5.3}Βασικές παράμετροι}{31}{subsection.5.5.3}% 
\babel@toc {english}{}
\babel@toc {greek}{}
\babel@toc {english}{}
\babel@toc {greek}{}
\babel@toc {english}{}
\babel@toc {greek}{}
\babel@toc {english}{}
\babel@toc {greek}{}
\contentsline {section}{\numberline {5.6}Support Vector Regression (SVR)}{31}{section.5.6}% 
\contentsline {subsection}{\numberline {5.6.1}Εισαγωγή}{31}{subsection.5.6.1}% 
\babel@toc {english}{}
\babel@toc {greek}{}
\babel@toc {english}{}
\babel@toc {greek}{}
\babel@toc {english}{}
\babel@toc {greek}{}
\babel@toc {english}{}
\babel@toc {greek}{}
\babel@toc {english}{}
\babel@toc {greek}{}
\contentsline {subsection}{\numberline {5.6.2}Πλεονεκτήματα και περιορισμοί}{33}{subsection.5.6.2}% 
\babel@toc {english}{}
\babel@toc {greek}{}
\babel@toc {english}{}
\babel@toc {greek}{}
\contentsline {subsection}{\numberline {5.6.3}Βασικές παράμετροι}{33}{subsection.5.6.3}% 
\babel@toc {english}{}
\babel@toc {greek}{}
\babel@toc {english}{}
\babel@toc {greek}{}
\babel@toc {english}{}
\babel@toc {greek}{}
\babel@toc {greek}{}
\babel@toc {greek}{}
\babel@toc {english}{}
\babel@toc {greek}{}
\babel@toc {english}{}
\babel@toc {greek}{}
\babel@toc {english}{}
\babel@toc {greek}{}
\contentsline {section}{\numberline {5.7}Ρυθμίσεις παραμέτρων αλγορίθμων}{33}{section.5.7}% 
\babel@toc {english}{}
\babel@toc {greek}{}
\babel@toc {english}{}
\babel@toc {greek}{}
\babel@toc {english}{}
\babel@toc {greek}{}
\babel@toc {english}{}
\babel@toc {greek}{}
\babel@toc {english}{}
\babel@toc {english}{}
\babel@toc {greek}{}
\babel@toc {english}{}
\babel@toc {greek}{}
\babel@toc {english}{}
\babel@toc {greek}{}
\babel@toc {english}{}
\babel@toc {greek}{}
\babel@toc {english}{}
\babel@toc {greek}{}
\babel@toc {english}{}
\babel@toc {greek}{}
\babel@toc {english}{}
\babel@toc {greek}{}
\contentsline {chapter}{\numberline {6}Αποτελέσματα}{37}{chapter.6}% 
\contentsline {section}{\numberline {6.1}Εισαγωγή}{37}{section.6.1}% 
\contentsline {section}{\numberline {6.2}Αποτελέσματα αλγορίθμου AdaptiveBoosting (AdaBoost)}{37}{section.6.2}% 
\contentsline {section}{\numberline {6.3}Αποτελέσματα αλγορίθμου Gradient Tree Boosting}{40}{section.6.3}% 
\babel@toc {english}{}
\babel@toc {greek}{}
\babel@toc {english}{}
\babel@toc {greek}{}
\contentsline {section}{\numberline {6.4}Αποτελέσματα αλγορίθμου Random Forest}{45}{section.6.4}% 
\babel@toc {english}{}
\babel@toc {greek}{}
\babel@toc {english}{}
\babel@toc {greek}{}
\babel@toc {english}{}
\babel@toc {greek}{}
\babel@toc {english}{}
\babel@toc {greek}{}
\contentsline {section}{\numberline {6.5}Αποτελέσματα αλγορίθμου k-nearest neighbors (knn)}{49}{section.6.5}% 
\babel@toc {english}{}
\babel@toc {greek}{}
\babel@toc {english}{}
\babel@toc {greek}{}
\contentsline {section}{\numberline {6.6}Αποτελέσαμτα αλγορίθμου \selectlanguage {english}Support vector regression (SVR)}{53}{section.6.6}% 
\babel@toc {greek}{}
\babel@toc {english}{}
\babel@toc {greek}{}
\babel@toc {english}{}
\babel@toc {greek}{}
\contentsline {section}{\numberline {6.7}Σύγκριση αποτελεσμάτων αλγορίθμων}{57}{section.6.7}% 
\babel@toc {english}{}
\babel@toc {greek}{}
\babel@toc {english}{}
\babel@toc {greek}{}
\contentsline {chapter}{\numberline {7}Συμπεράσματα}{63}{chapter.7}% 
\babel@toc {english}{}
\babel@toc {greek}{}
\babel@toc {english}{}
\babel@toc {greek}{}
\babel@toc {english}{}
\babel@toc {greek}{}
\contentsline {chapter}{Βιβλιογραφία}{65}{chapter.7}% 
