\relax 
\providecommand\hyper@newdestlabel[2]{}
\providecommand\HyperFirstAtBeginDocument{\AtBeginDocument}
\HyperFirstAtBeginDocument{\ifx\hyper@anchor\@undefined
\global\let\oldcontentsline\contentsline
\gdef\contentsline#1#2#3#4{\oldcontentsline{#1}{#2}{#3}}
\global\let\oldnewlabel\newlabel
\gdef\newlabel#1#2{\newlabelxx{#1}#2}
\gdef\newlabelxx#1#2#3#4#5#6{\oldnewlabel{#1}{{#2}{#3}}}
\AtEndDocument{\ifx\hyper@anchor\@undefined
\let\contentsline\oldcontentsline
\let\newlabel\oldnewlabel
\fi}
\fi}
\global\let\hyper@last\relax 
\gdef\HyperFirstAtBeginDocument#1{#1}
\providecommand*\HyPL@Entry[1]{}
\bbl@beforestart
\citation{*}
\HyPL@Entry{0<</S/D>>}
\babel@aux{greek}{}
\HyPL@Entry{1<</S/r>>}
\newlabel{sec:orgfb9d599}{{}{i}{ΠΕΡΙΛΗΨΗ}{chapter*.1}{}}
\babel@aux{greek}{}
\babel@aux{english}{}
\babel@aux{greek}{}
\babel@aux{english}{}
\newlabel{sec:orga15469c}{{}{iii}{ABSTRACT}{chapter*.2}{}}
\babel@aux{greek}{}
\babel@aux{english}{}
\babel@aux{greek}{}
\HyPL@Entry{7<</S/D>>}
\babel@aux{greek}{}
\@writefile{toc}{\contentsline {chapter}{\numberline {1}Εισαγωγή}{1}{chapter.1}\protected@file@percent }
\@writefile{lof}{\addvspace {10\p@ }}
\@writefile{lot}{\addvspace {10\p@ }}
\newlabel{sec:orga709430}{{1}{1}{Εισαγωγή}{chapter.1}{}}
\@writefile{toc}{\contentsline {section}{\numberline {1.1}Απώλεια διαδρομής: Η φύση του προβλήματος}{1}{section.1.1}\protected@file@percent }
\newlabel{sec:orgbf75f26}{{1.1}{1}{Απώλεια διαδρομής: Η φύση του προβλήματος}{section.1.1}{}}
\@writefile{toc}{\contentsline {section}{\numberline {1.2}Στόχος εργασίας}{1}{section.1.2}\protected@file@percent }
\newlabel{sec:orgd6a449e}{{1.2}{1}{Στόχος εργασίας}{section.1.2}{}}
\@writefile{toc}{\contentsline {section}{\numberline {1.3}Σύνοψη κεφαλαίων}{2}{section.1.3}\protected@file@percent }
\newlabel{sec:org7262441}{{1.3}{2}{Σύνοψη κεφαλαίων}{section.1.3}{}}
\citation{kirk2017thoughtful}
\citation{kamathMasteringJavaMachine2017}
\@writefile{toc}{\contentsline {chapter}{\numberline {2}Μηχανική Μάθηση}{3}{chapter.2}\protected@file@percent }
\@writefile{lof}{\addvspace {10\p@ }}
\@writefile{lot}{\addvspace {10\p@ }}
\@writefile{toc}{\contentsline {section}{\numberline {2.1}Βασικές πληροφορίες μηχανικής μάθησης}{3}{section.2.1}\protected@file@percent }
\citation{kirk2017thoughtful}
\citation{raschkaPythonDeeperInsights2016}
\@writefile{lof}{\contentsline {figure}{\numberline {2.2.1}{\ignorespaces Προβλήματα που λύνονται με μηχανική μάθηση \cite  {kirk2017thoughtful}}}{4}{figure.2.2.0.1}\protected@file@percent }
\newlabel{fig:kirk}{{2.2.1}{4}{Προβλήματα που λύνονται με μηχανική μάθηση \cite {kirk2017thoughtful}}{figure.2.2.0.1}{}}
\@writefile{toc}{\contentsline {section}{\numberline {2.2}Τύποι μηχανικής μάθησης}{4}{section.2.2}\protected@file@percent }
\babel@aux{english}{}
\babel@aux{greek}{}
\babel@aux{english}{}
\babel@aux{greek}{}
\babel@aux{english}{}
\babel@aux{greek}{}
\babel@aux{english}{}
\babel@aux{greek}{}
\babel@aux{english}{}
\babel@aux{greek}{}
\babel@aux{greek}{}
\@writefile{lof}{\contentsline {figure}{\numberline {2.2.2}{\ignorespaces Σύγκριση αλγορίθμων μηχανικής μάθησης \cite  {raschkaPythonDeeperInsights2016}}}{5}{figure.2.2.0.2}\protected@file@percent }
\newlabel{fig:raschka}{{2.2.2}{5}{Σύγκριση αλγορίθμων μηχανικής μάθησης \cite {raschkaPythonDeeperInsights2016}}{figure.2.2.0.2}{}}
\@writefile{toc}{\contentsline {subsection}{\numberline {2.2.1}Επιτηρούμενη μηχανική μάθηση}{5}{subsection.2.2.1}\protected@file@percent }
\babel@aux{greek}{}
\@writefile{lof}{\contentsline {figure}{\numberline {2.2.1}{\ignorespaces Παράδειγμα ταξινόμησης}}{6}{figure.2.2.1.1}\protected@file@percent }
\newlabel{fig:classificationExample}{{2.2.1}{6}{Παράδειγμα ταξινόμησης}{figure.2.2.1.1}{}}
\@writefile{toc}{\contentsline {subsubsection}{Ταξινόμηση (Classification)}{6}{subsection.2.2.1}\protected@file@percent }
\babel@aux{greek}{}
\babel@aux{english}{}
\babel@aux{greek}{}
\babel@aux{english}{}
\babel@aux{greek}{}
\babel@aux{english}{}
\babel@aux{greek}{}
\@writefile{lof}{\contentsline {figure}{\numberline {2.2.2}{\ignorespaces Παράδειγμα παλινδρόμησης}}{7}{figure.2.2.1.2}\protected@file@percent }
\newlabel{fig:regressionExample}{{2.2.2}{7}{Παράδειγμα παλινδρόμησης}{figure.2.2.1.2}{}}
\@writefile{toc}{\contentsline {subsubsection}{Παλινδρόμηση (Regression)}{7}{figure.2.2.1.1}\protected@file@percent }
\babel@aux{english}{}
\babel@aux{greek}{}
\@writefile{toc}{\contentsline {subsection}{\numberline {2.2.2}Μη επιτηρούμενη μάθηση}{7}{subsection.2.2.2}\protected@file@percent }
\babel@aux{english}{}
\babel@aux{greek}{}
\babel@aux{english}{}
\babel@aux{greek}{}
\@writefile{lof}{\contentsline {figure}{\numberline {2.2.3}{\ignorespaces Παράδειγμα γραμμικής παλινδρόμησης}}{8}{figure.2.2.1.3}\protected@file@percent }
\newlabel{fig:linearRegressionExample}{{2.2.3}{8}{Παράδειγμα γραμμικής παλινδρόμησης}{figure.2.2.1.3}{}}
\@writefile{lof}{\contentsline {figure}{\numberline {2.2.1}{\ignorespaces Μη-εκσημασμένα δεδομένα εκπαίδευσης για μη επιτηρούμενη μάθηση}}{8}{figure.2.2.2.1}\protected@file@percent }
\newlabel{fig:unsupervisedExample}{{2.2.1}{8}{Μη-εκσημασμένα δεδομένα εκπαίδευσης για μη επιτηρούμενη μάθηση}{figure.2.2.2.1}{}}
\citation{geronHandsOnMachineLearning2019}
\@writefile{lof}{\contentsline {figure}{\numberline {2.2.2}{\ignorespaces Συσταδοποίηση μη-επιτηρούμενης μάθησης}}{9}{figure.2.2.2.2}\protected@file@percent }
\newlabel{fig:cluster}{{2.2.2}{9}{Συσταδοποίηση μη-επιτηρούμενης μάθησης}{figure.2.2.2.2}{}}
\babel@aux{english}{}
\babel@aux{greek}{}
\babel@aux{english}{}
\babel@aux{greek}{}
\babel@aux{english}{}
\babel@aux{greek}{}
\babel@aux{english}{}
\babel@aux{greek}{}
\babel@aux{english}{}
\babel@aux{greek}{}
\citation{geronHandsOnMachineLearning2019}
\@writefile{lof}{\contentsline {figure}{\numberline {2.2.3}{\ignorespaces Παράδειγμα μείωσης διαστασιμότητας}}{10}{figure.2.2.2.3}\protected@file@percent }
\newlabel{fig:diastasimotita}{{2.2.3}{10}{Παράδειγμα μείωσης διαστασιμότητας}{figure.2.2.2.3}{}}
\@writefile{lof}{\contentsline {figure}{\numberline {2.2.4}{\ignorespaces Παράδειγμα t-SNE απεικόνισης}}{10}{figure.2.2.2.4}\protected@file@percent }
\newlabel{fig:tSNE}{{2.2.4}{10}{Παράδειγμα t-SNE απεικόνισης}{figure.2.2.2.4}{}}
\babel@aux{english}{}
\babel@aux{greek}{}
\babel@aux{english}{}
\babel@aux{greek}{}
\@writefile{lof}{\contentsline {figure}{\numberline {2.2.5}{\ignorespaces Αλγόριθμος ανίχνευσης ανωμαλιών}}{11}{figure.2.2.2.5}\protected@file@percent }
\newlabel{fig:anomalies}{{2.2.5}{11}{Αλγόριθμος ανίχνευσης ανωμαλιών}{figure.2.2.2.5}{}}
\babel@aux{english}{}
\babel@aux{greek}{}
\@writefile{toc}{\contentsline {subsection}{\numberline {2.2.3}Ημι-επιτηρούμενη μάθηση}{11}{subsection.2.2.3}\protected@file@percent }
\babel@aux{english}{}
\babel@aux{greek}{}
\babel@aux{english}{}
\babel@aux{greek}{}
\babel@aux{english}{}
\babel@aux{greek}{}
\babel@aux{english}{}
\babel@aux{greek}{}
\babel@aux{english}{}
\babel@aux{greek}{}
\babel@aux{english}{}
\babel@aux{greek}{}
\@writefile{toc}{\contentsline {subsection}{\numberline {2.2.4}Ενισχυτική μάθηση}{11}{subsection.2.2.4}\protected@file@percent }
\babel@aux{english}{}
\babel@aux{greek}{}
\@writefile{lof}{\contentsline {figure}{\numberline {2.2.1}{\ignorespaces Ημι-επιτηρούμενη μάθηση}}{12}{figure.2.2.3.1}\protected@file@percent }
\newlabel{fig:semiSupervisedExample}{{2.2.1}{12}{Ημι-επιτηρούμενη μάθηση}{figure.2.2.3.1}{}}
\@writefile{lof}{\contentsline {figure}{\numberline {2.2.1}{\ignorespaces Παράδειγμα ενισχυτικής μάθησης}}{12}{figure.2.2.4.1}\protected@file@percent }
\newlabel{fig:reinforcementExample}{{2.2.1}{12}{Παράδειγμα ενισχυτικής μάθησης}{figure.2.2.4.1}{}}
\@writefile{toc}{\contentsline {section}{\numberline {2.3}Προκλήσεις στη μηχανική μάθηση}{12}{section.2.3}\protected@file@percent }
\@writefile{toc}{\contentsline {subsection}{\numberline {2.3.1}Ανεπαρκές πλήθος δεδομένων εκπαίδευσης}{13}{subsection.2.3.1}\protected@file@percent }
\@writefile{toc}{\contentsline {subsection}{\numberline {2.3.2}Κακή ποιότητα δεδομένων}{13}{subsection.2.3.2}\protected@file@percent }
\@writefile{toc}{\contentsline {subsection}{\numberline {2.3.3}Δεδομένα εκπαίδευσης που δεν είναι αντιπροσωπευτικά}{13}{subsection.2.3.3}\protected@file@percent }
\babel@aux{english}{}
\babel@aux{greek}{}
\@writefile{lof}{\contentsline {figure}{\numberline {2.3.1}{\ignorespaces Εφραμογή μοντέλου σε πειραματικά δεδομένα}}{14}{figure.2.3.3.1}\protected@file@percent }
\newlabel{fig:trialData}{{2.3.1}{14}{Εφραμογή μοντέλου σε πειραματικά δεδομένα}{figure.2.3.3.1}{}}
\@writefile{lof}{\contentsline {figure}{\numberline {2.3.2}{\ignorespaces Εφραμογή μοντέλου σε διακριτά δεδομένα}}{14}{figure.2.3.3.2}\protected@file@percent }
\newlabel{fig:distinctData}{{2.3.2}{14}{Εφραμογή μοντέλου σε διακριτά δεδομένα}{figure.2.3.3.2}{}}
\citation{swamynathanMasteringMachineLearning2019}
\citation{swamynathanMasteringMachineLearning2019}
\@writefile{lof}{\contentsline {figure}{\numberline {2.3.1}{\ignorespaces Παράδειγμα υπερπροσαρμογής}}{15}{figure.2.3.5.1}\protected@file@percent }
\newlabel{fig:overfitting}{{2.3.1}{15}{Παράδειγμα υπερπροσαρμογής}{figure.2.3.5.1}{}}
\@writefile{toc}{\contentsline {subsection}{\numberline {2.3.4}Επιλογή άσχετων χαρακτηριστικών στα δεδομένα εκπαίδευσης}{15}{subsection.2.3.4}\protected@file@percent }
\@writefile{toc}{\contentsline {subsection}{\numberline {2.3.5}Υπερπροσαρμογή των δεδομένων εκπαίδευσης}{15}{subsection.2.3.5}\protected@file@percent }
\babel@aux{english}{}
\babel@aux{greek}{}
\@writefile{toc}{\contentsline {subsection}{\numberline {2.3.6}Υπoπροσαρμογή των δεδομένων εκπαίδευσης}{15}{subsection.2.3.6}\protected@file@percent }
\@writefile{toc}{\contentsline {chapter}{\numberline {3}Γλώσσα Προγραμματισμού Python και Μηχανική Μάθηση}{17}{chapter.3}\protected@file@percent }
\@writefile{lof}{\addvspace {10\p@ }}
\@writefile{lot}{\addvspace {10\p@ }}
\@writefile{toc}{\contentsline {section}{\numberline {3.1}Βασικές πληροφορίες για την Python}{17}{section.3.1}\protected@file@percent }
\citation{kirk2017thoughtful}
\citation{geronHandsOnMachineLearning2019}
\citation{mckinneyPythonDataAnalysis2017}
\citation{mckinneyPythonDataAnalysis2017}
\citation{silvaLearningSciPyNumerical2013}
\citation{mullerIntroductionMachineLearning2016}
\citation{silvaLearningSciPyNumerical2013}
\@writefile{toc}{\contentsline {section}{\numberline {3.2}Scikit-learn}{18}{section.3.2}\protected@file@percent }
\babel@aux{english}{}
\babel@aux{greek}{}
\babel@aux{english}{}
\babel@aux{greek}{}
\babel@aux{english}{}
\babel@aux{greek}{}
\babel@aux{english}{}
\babel@aux{greek}{}
\babel@aux{english}{}
\babel@aux{greek}{}
\babel@aux{english}{}
\babel@aux{greek}{}
\@writefile{toc}{\contentsline {section}{\numberline {3.3}Numerical Python (Numpy)}{18}{section.3.3}\protected@file@percent }
\babel@aux{english}{}
\babel@aux{greek}{}
\babel@aux{english}{}
\babel@aux{greek}{}
\babel@aux{english}{}
\babel@aux{greek}{}
\@writefile{toc}{\contentsline {section}{\numberline {3.4}Scientific Python (Scipy)}{18}{section.3.4}\protected@file@percent }
\babel@aux{english}{}
\babel@aux{greek}{}
\babel@aux{english}{}
\babel@aux{greek}{}
\babel@aux{english}{}
\babel@aux{greek}{}
\babel@aux{english}{}
\babel@aux{greek}{}
\@writefile{toc}{\contentsline {section}{\numberline {3.5}Pandas}{18}{section.3.5}\protected@file@percent }
\citation{nelliPythonDataAnalytics2018}
\citation{mckinneyPythonDataAnalysis2017}
\@writefile{toc}{\contentsline {section}{\numberline {3.6}Matplotlib}{19}{section.3.6}\protected@file@percent }
\@writefile{toc}{\contentsline {section}{\numberline {3.7}Tensorflow}{19}{section.3.7}\protected@file@percent }
\babel@aux{english}{}
\babel@aux{greek}{}
\babel@aux{english}{}
\babel@aux{greek}{}
\babel@aux{english}{}
\babel@aux{greek}{}
\citation{sarkarPracticalMachineLearning2017}
\citation{raschkaPythonDeeperInsights2016}
\@writefile{toc}{\contentsline {chapter}{\numberline {4}Επεξεργασία Δεδομένων}{21}{chapter.4}\protected@file@percent }
\@writefile{lof}{\addvspace {10\p@ }}
\@writefile{lot}{\addvspace {10\p@ }}
\@writefile{toc}{\contentsline {section}{\numberline {4.1}Συλλογή δεδομένων}{21}{section.4.1}\protected@file@percent }
\babel@aux{english}{}
\babel@aux{greek}{}
\@writefile{toc}{\contentsline {section}{\numberline {4.2}Προεπεξεργασία δεδομένων}{21}{section.4.2}\protected@file@percent }
\@writefile{toc}{\contentsline {subsection}{\numberline {4.2.1}Διαίρεση σετ δεδομένων}{21}{subsection.4.2.1}\protected@file@percent }
\babel@aux{english}{}
\babel@aux{greek}{}
\babel@aux{english}{}
\babel@aux{greek}{}
\citation{kirk2017thoughtful}
\babel@aux{english}{}
\babel@aux{greek}{}
\babel@aux{english}{}
\babel@aux{greek}{}
\@writefile{toc}{\contentsline {subsection}{\numberline {4.2.2}Εξισορρόπηση χαρακτηριστικών}{22}{subsection.4.2.2}\protected@file@percent }
\babel@aux{english}{}
\babel@aux{greek}{}
\babel@aux{english}{}
\babel@aux{greek}{}
\babel@aux{english}{}
\babel@aux{greek}{}
\@writefile{toc}{\contentsline {section}{\numberline {4.3}Δείκτες αξιολόγησης}{22}{section.4.3}\protected@file@percent }
\babel@aux{english}{}
\babel@aux{english}{}
\babel@aux{greek}{}
\babel@aux{greek}{}
\babel@aux{greek}{}
\@writefile{toc}{\contentsline {chapter}{\numberline {5}Αλγόριθμοι που Μελετήθηκαν}{25}{chapter.5}\protected@file@percent }
\@writefile{lof}{\addvspace {10\p@ }}
\@writefile{lot}{\addvspace {10\p@ }}
\@writefile{toc}{\contentsline {section}{\numberline {5.1}Εισαγωγή}{25}{section.5.1}\protected@file@percent }
\babel@aux{english}{}
\babel@aux{greek}{}
\@writefile{toc}{\contentsline {section}{\numberline {5.2}k nearest neighbors (knn)}{25}{section.5.2}\protected@file@percent }
\@writefile{toc}{\contentsline {subsection}{\numberline {5.2.1}Εισαγωγή}{25}{subsection.5.2.1}\protected@file@percent }
\babel@aux{english}{}
\babel@aux{greek}{}
\citation{reeseMachineLearningEndtoEnd2017}
\citation{lantzMachineLearning2013}
\@writefile{lof}{\contentsline {figure}{\numberline {5.2.1}{\ignorespaces Επιλογή παράγοντα $k$}}{26}{figure.5.2.1.1}\protected@file@percent }
\newlabel{fig:knnNumber}{{5.2.1}{26}{Επιλογή παράγοντα $k$}{figure.5.2.1.1}{}}
\babel@aux{english}{}
\babel@aux{greek}{}
\babel@aux{greek}{}
\babel@aux{english}{}
\babel@aux{greek}{}
\babel@aux{english}{}
\babel@aux{greek}{}
\citation{harringtonMachineLearningAction2012}
\citation{reeseMachineLearningEndtoEnd2017}
\@writefile{lof}{\contentsline {figure}{\numberline {5.2.2}{\ignorespaces Ταξινόμηση με αλγόριθμο knn}}{27}{figure.5.2.1.2}\protected@file@percent }
\newlabel{fig:knn}{{5.2.2}{27}{Ταξινόμηση με αλγόριθμο knn}{figure.5.2.1.2}{}}
\@writefile{toc}{\contentsline {subsection}{\numberline {5.2.2}Πλεονεκτήματα και περιορισμοί}{27}{subsection.5.2.2}\protected@file@percent }
\babel@aux{english}{}
\babel@aux{greek}{}
\babel@aux{english}{}
\babel@aux{greek}{}
\citation{geronHandsOnMachineLearning2019}
\citation{joshiPythonRealWorld2016}
\citation{harringtonMachineLearningAction2012}
\@writefile{lof}{\contentsline {figure}{\numberline {5.3.1}{\ignorespaces Διαδοχική εκπαίδευση και ενημέρωση βαρών με Adaboost}}{28}{figure.5.3.1.1}\protected@file@percent }
\newlabel{fig:adaboost}{{5.3.1}{28}{Διαδοχική εκπαίδευση και ενημέρωση βαρών με Adaboost}{figure.5.3.1.1}{}}
\@writefile{toc}{\contentsline {section}{\numberline {5.3}Adaptive Boost (AdaBoost)}{28}{section.5.3}\protected@file@percent }
\@writefile{toc}{\contentsline {subsection}{\numberline {5.3.1}Εισαγωγή}{28}{subsection.5.3.1}\protected@file@percent }
\babel@aux{english}{}
\babel@aux{greek}{}
\babel@aux{english}{}
\babel@aux{greek}{}
\babel@aux{english}{}
\babel@aux{greek}{}
\@writefile{toc}{\contentsline {subsection}{\numberline {5.3.2}Πλεονεκτήματα και περιορισμοί}{28}{subsection.5.3.2}\protected@file@percent }
\babel@aux{english}{}
\babel@aux{greek}{}
\babel@aux{english}{}
\babel@aux{greek}{}
\babel@aux{english}{}
\babel@aux{greek}{}
\babel@aux{english}{}
\babel@aux{greek}{}
\babel@aux{english}{}
\babel@aux{greek}{}
\citation{kirk2017thoughtful}
\citation{mullerIntroductionMachineLearning2016}
\@writefile{toc}{\contentsline {subsection}{\numberline {5.3.3}Βασικές παράμετροι}{29}{subsection.5.3.3}\protected@file@percent }
\babel@aux{english}{}
\babel@aux{english}{}
\babel@aux{english}{}
\babel@aux{english}{}
\babel@aux{greek}{}
\babel@aux{english}{}
\babel@aux{greek}{}
\babel@aux{greek}{}
\babel@aux{english}{}
\babel@aux{greek}{}
\babel@aux{english}{}
\babel@aux{greek}{}
\babel@aux{greek}{}
\babel@aux{english}{}
\babel@aux{greek}{}
\babel@aux{greek}{}
\babel@aux{greek}{}
\babel@aux{greek}{}
\babel@aux{english}{}
\babel@aux{greek}{}
\babel@aux{greek}{}
\babel@aux{english}{}
\babel@aux{english}{}
\@writefile{toc}{\contentsline {section}{\numberline {5.4}Gradient tree boosting}{29}{section.5.4}\protected@file@percent }
\@writefile{toc}{\contentsline {subsection}{\numberline {5.4.1}Εισαγωγή}{29}{subsection.5.4.1}\protected@file@percent }
\babel@aux{english}{}
\babel@aux{greek}{}
\babel@aux{english}{}
\babel@aux{greek}{}
\babel@aux{english}{}
\babel@aux{greek}{}
\babel@aux{english}{}
\babel@aux{greek}{}
\babel@aux{english}{}
\babel@aux{greek}{}
\@writefile{toc}{\contentsline {subsection}{\numberline {5.4.2}Πλεονεκτήματα και περιορισμοί}{29}{subsection.5.4.2}\protected@file@percent }
\citation{raschkaPythonDeeperInsights2016}
\@writefile{toc}{\contentsline {subsection}{\numberline {5.4.3}Βασικές παράμετροι}{30}{subsection.5.4.3}\protected@file@percent }
\babel@aux{english}{}
\babel@aux{greek}{}
\babel@aux{english}{}
\babel@aux{greek}{}
\babel@aux{english}{}
\babel@aux{greek}{}
\babel@aux{english}{}
\babel@aux{greek}{}
\@writefile{toc}{\contentsline {section}{\numberline {5.5}Random Forest}{30}{section.5.5}\protected@file@percent }
\@writefile{toc}{\contentsline {subsection}{\numberline {5.5.1}Εισαγωγή}{30}{subsection.5.5.1}\protected@file@percent }
\babel@aux{english}{}
\babel@aux{english}{}
\babel@aux{greek}{}
\babel@aux{english}{}
\babel@aux{greek}{}
\babel@aux{english}{}
\babel@aux{greek}{}
\babel@aux{english}{}
\babel@aux{english}{}
\babel@aux{greek}{}
\@writefile{toc}{\contentsline {subsection}{\numberline {5.5.2}Πλεονεκτήματα και περιορισμοί}{30}{subsection.5.5.2}\protected@file@percent }
\citation{RandomForestAlgorithm2018}
\@writefile{toc}{\contentsline {subsection}{\numberline {5.5.3}Βασικές παράμετροι}{31}{subsection.5.5.3}\protected@file@percent }
\babel@aux{english}{}
\babel@aux{greek}{}
\babel@aux{english}{}
\babel@aux{greek}{}
\babel@aux{english}{}
\babel@aux{greek}{}
\babel@aux{english}{}
\babel@aux{greek}{}
\@writefile{toc}{\contentsline {section}{\numberline {5.6}Support Vector Regression (SVR)}{31}{section.5.6}\protected@file@percent }
\@writefile{toc}{\contentsline {subsection}{\numberline {5.6.1}Εισαγωγή}{31}{subsection.5.6.1}\protected@file@percent }
\babel@aux{english}{}
\babel@aux{greek}{}
\babel@aux{english}{}
\babel@aux{greek}{}
\babel@aux{english}{}
\babel@aux{greek}{}
\@writefile{lof}{\contentsline {figure}{\numberline {5.6.1}{\ignorespaces SVR μίας διάστασης}}{32}{figure.5.6.1.1}\protected@file@percent }
\newlabel{fig:svr}{{5.6.1}{32}{SVR μίας διάστασης}{figure.5.6.1.1}{}}
\newlabel{eq:svm1}{{5.1}{32}{Εισαγωγή}{equation.5.6.1}{}}
\newlabel{eq:svm2}{{5.2}{32}{Εισαγωγή}{equation.5.6.2}{}}
\newlabel{eq:svm3}{{5.3}{32}{Εισαγωγή}{equation.5.6.3}{}}
\newlabel{eq:svm4}{{5.4}{32}{Εισαγωγή}{equation.5.6.4}{}}
\babel@aux{english}{}
\babel@aux{greek}{}
\babel@aux{english}{}
\babel@aux{greek}{}
\citation{harringtonMachineLearningAction2012}
\citation{reeseMachineLearningEndtoEnd2017}
\citation{joshiPythonRealWorld2016}
\@writefile{toc}{\contentsline {subsection}{\numberline {5.6.2}Πλεονεκτήματα και περιορισμοί}{33}{subsection.5.6.2}\protected@file@percent }
\babel@aux{english}{}
\babel@aux{greek}{}
\babel@aux{english}{}
\babel@aux{greek}{}
\@writefile{toc}{\contentsline {subsection}{\numberline {5.6.3}Βασικές παράμετροι}{33}{subsection.5.6.3}\protected@file@percent }
\babel@aux{english}{}
\babel@aux{greek}{}
\babel@aux{english}{}
\babel@aux{greek}{}
\babel@aux{english}{}
\babel@aux{greek}{}
\babel@aux{greek}{}
\babel@aux{greek}{}
\babel@aux{english}{}
\babel@aux{greek}{}
\babel@aux{english}{}
\babel@aux{greek}{}
\babel@aux{english}{}
\babel@aux{greek}{}
\@writefile{toc}{\contentsline {section}{\numberline {5.7}Ρυθμίσεις παραμέτρων αλγορίθμων}{33}{section.5.7}\protected@file@percent }
\babel@aux{english}{}
\babel@aux{greek}{}
\babel@aux{english}{}
\babel@aux{greek}{}
\babel@aux{english}{}
\babel@aux{greek}{}
\babel@aux{english}{}
\citation{mullerIntroductionMachineLearning2016}
\@writefile{lof}{\contentsline {figure}{\numberline {5.7.1}{\ignorespaces SVR μίας διάστασης}}{34}{figure.5.7.0.1}\protected@file@percent }
\newlabel{fig:kcv}{{5.7.1}{34}{SVR μίας διάστασης}{figure.5.7.0.1}{}}
\babel@aux{greek}{}
\babel@aux{english}{}
\babel@aux{english}{}
\babel@aux{greek}{}
\babel@aux{english}{}
\babel@aux{greek}{}
\babel@aux{english}{}
\babel@aux{greek}{}
\babel@aux{english}{}
\babel@aux{greek}{}
\babel@aux{english}{}
\babel@aux{greek}{}
\babel@aux{english}{}
\babel@aux{greek}{}
\babel@aux{english}{}
\babel@aux{greek}{}
\@writefile{toc}{\contentsline {chapter}{\numberline {6}Αποτελέσματα}{37}{chapter.6}\protected@file@percent }
\@writefile{lof}{\addvspace {10\p@ }}
\@writefile{lot}{\addvspace {10\p@ }}
\@writefile{toc}{\contentsline {section}{\numberline {6.1}Εισαγωγή}{37}{section.6.1}\protected@file@percent }
\@writefile{toc}{\contentsline {section}{\numberline {6.2}Αποτελέσματα αλγορίθμου AdaptiveBoosting (AdaBoost)}{37}{section.6.2}\protected@file@percent }
\@writefile{lot}{\contentsline {table}{\numberline {6.2.1}{\ignorespaces Σύγκριση παραμέτρων AdaBoost}}{38}{table.6.2.0.1}\protected@file@percent }
\newlabel{table:adaboost1}{{6.2.1}{38}{Σύγκριση παραμέτρων AdaBoost}{table.6.2.0.1}{}}
\@writefile{lof}{\contentsline {figure}{\numberline {6.2.1}{\ignorespaces Διασπορά πραγματικών και εκτιμώμενων μετρήσεων Adaboost}}{38}{figure.6.2.0.1}\protected@file@percent }
\newlabel{fig:ada1}{{6.2.1}{38}{Διασπορά πραγματικών και εκτιμώμενων μετρήσεων Adaboost}{figure.6.2.0.1}{}}
\@writefile{lot}{\contentsline {table}{\numberline {6.2.2}{\ignorespaces Σύγκριση παραμέτρων AdaBoost}}{38}{table.6.2.0.2}\protected@file@percent }
\newlabel{table:adaboost2}{{6.2.2}{38}{Σύγκριση παραμέτρων AdaBoost}{table.6.2.0.2}{}}
\@writefile{lof}{\contentsline {figure}{\numberline {6.2.2}{\ignorespaces Ιστόγραμμα διαφορών εκτιμώμενων και πραγματικών πειραματικών μετρήσεων Adaboost}}{39}{figure.6.2.0.2}\protected@file@percent }
\newlabel{fig:ada2}{{6.2.2}{39}{Ιστόγραμμα διαφορών εκτιμώμενων και πραγματικών πειραματικών μετρήσεων Adaboost}{figure.6.2.0.2}{}}
\@writefile{lof}{\contentsline {figure}{\numberline {6.2.3}{\ignorespaces Ιστόγραμμα ποσοστιαίων διαφορών εκτιμώμενων και πραγματικών πειραματικών μετρήσεων Adaboost}}{39}{figure.6.2.0.3}\protected@file@percent }
\newlabel{fig:ada3}{{6.2.3}{39}{Ιστόγραμμα ποσοστιαίων διαφορών εκτιμώμενων και πραγματικών πειραματικών μετρήσεων Adaboost}{figure.6.2.0.3}{}}
\@writefile{lot}{\contentsline {table}{\numberline {6.2.3}{\ignorespaces Σύγκριση παραμέτρων AdaBoost}}{40}{table.6.2.0.3}\protected@file@percent }
\newlabel{table:adaboost3}{{6.2.3}{40}{Σύγκριση παραμέτρων AdaBoost}{table.6.2.0.3}{}}
\@writefile{lof}{\contentsline {figure}{\numberline {6.2.4}{\ignorespaces Διασπορά πραγματικών και εκτιμώμενων μετρήσεων Adaboost}}{40}{figure.6.2.0.4}\protected@file@percent }
\newlabel{fig:ada4}{{6.2.4}{40}{Διασπορά πραγματικών και εκτιμώμενων μετρήσεων Adaboost}{figure.6.2.0.4}{}}
\@writefile{toc}{\contentsline {section}{\numberline {6.3}Αποτελέσματα αλγορίθμου Gradient Tree Boosting}{40}{section.6.3}\protected@file@percent }
\babel@aux{english}{}
\babel@aux{greek}{}
\babel@aux{english}{}
\babel@aux{greek}{}
\@writefile{lot}{\contentsline {table}{\numberline {6.2.4}{\ignorespaces Σύγκριση παραμέτρων AdaBoost}}{40}{table.6.2.0.4}\protected@file@percent }
\newlabel{table:adaboost4}{{6.2.4}{40}{Σύγκριση παραμέτρων AdaBoost}{table.6.2.0.4}{}}
\@writefile{lof}{\contentsline {figure}{\numberline {6.2.5}{\ignorespaces Ιστόγραμμα διαφορών εκτιμώμενων και πραγματικών πειραματικών μετρήσεων Adaboost}}{41}{figure.6.2.0.5}\protected@file@percent }
\newlabel{fig:ada5}{{6.2.5}{41}{Ιστόγραμμα διαφορών εκτιμώμενων και πραγματικών πειραματικών μετρήσεων Adaboost}{figure.6.2.0.5}{}}
\@writefile{lof}{\contentsline {figure}{\numberline {6.2.6}{\ignorespaces Ιστόγραμμα ποσοστιαίων διαφορών εκτιμώμενων και πραγματικών πειραματικών μετρήσεων Adaboost}}{41}{figure.6.2.0.6}\protected@file@percent }
\newlabel{fig:ada6}{{6.2.6}{41}{Ιστόγραμμα ποσοστιαίων διαφορών εκτιμώμενων και πραγματικών πειραματικών μετρήσεων Adaboost}{figure.6.2.0.6}{}}
\@writefile{lot}{\contentsline {table}{\numberline {6.3.1}{\ignorespaces Σύγκριση παραμέτρων Gradient Tree Boosting}}{42}{table.6.3.0.1}\protected@file@percent }
\newlabel{table:grad1}{{6.3.1}{42}{Σύγκριση παραμέτρων Gradient Tree Boosting}{table.6.3.0.1}{}}
\@writefile{lof}{\contentsline {figure}{\numberline {6.3.1}{\ignorespaces Διασπορά πραγματικών και εκτιμώμενων μετρήσεων Gradient Tree Boosting}}{42}{figure.6.3.0.1}\protected@file@percent }
\newlabel{fig:grad1}{{6.3.1}{42}{Διασπορά πραγματικών και εκτιμώμενων μετρήσεων Gradient Tree Boosting}{figure.6.3.0.1}{}}
\@writefile{lot}{\contentsline {table}{\numberline {6.3.2}{\ignorespaces Σύγκριση παραμέτρων AdaBoost}}{42}{table.6.3.0.2}\protected@file@percent }
\newlabel{table:grad2}{{6.3.2}{42}{Σύγκριση παραμέτρων AdaBoost}{table.6.3.0.2}{}}
\@writefile{lof}{\contentsline {figure}{\numberline {6.3.2}{\ignorespaces Ιστόγραμμα διαφορών εκτιμώμενων και πραγματικών πειραματικών μετρήσεων Gradient Tree Boosting}}{43}{figure.6.3.0.2}\protected@file@percent }
\newlabel{fig:grad2}{{6.3.2}{43}{Ιστόγραμμα διαφορών εκτιμώμενων και πραγματικών πειραματικών μετρήσεων Gradient Tree Boosting}{figure.6.3.0.2}{}}
\@writefile{lof}{\contentsline {figure}{\numberline {6.3.3}{\ignorespaces Ιστόγραμμα ποσοστιαίων διαφορών εκτιμώμενων και πραγματικών πειραματικών μετρήσεων Gradient Tree Boosting}}{43}{figure.6.3.0.3}\protected@file@percent }
\newlabel{fig:grad3}{{6.3.3}{43}{Ιστόγραμμα ποσοστιαίων διαφορών εκτιμώμενων και πραγματικών πειραματικών μετρήσεων Gradient Tree Boosting}{figure.6.3.0.3}{}}
\@writefile{lot}{\contentsline {table}{\numberline {6.3.3}{\ignorespaces Σύγκριση παραμέτρων Gradient Tree Boosting}}{43}{table.6.3.0.3}\protected@file@percent }
\newlabel{table:grad3}{{6.3.3}{43}{Σύγκριση παραμέτρων Gradient Tree Boosting}{table.6.3.0.3}{}}
\@writefile{lof}{\contentsline {figure}{\numberline {6.3.4}{\ignorespaces Διασπορά πραγματικών και εκτιμώμενων μετρήσεων Gradient Tree Boosting}}{44}{figure.6.3.0.4}\protected@file@percent }
\newlabel{fig:grad4}{{6.3.4}{44}{Διασπορά πραγματικών και εκτιμώμενων μετρήσεων Gradient Tree Boosting}{figure.6.3.0.4}{}}
\@writefile{lof}{\contentsline {figure}{\numberline {6.3.5}{\ignorespaces Ιστόγραμμα διαφορών εκτιμώμενων και πραγματικών πειραματικών μετρήσεων Gradient Tree Boosting}}{44}{figure.6.3.0.5}\protected@file@percent }
\newlabel{fig:grad5}{{6.3.5}{44}{Ιστόγραμμα διαφορών εκτιμώμενων και πραγματικών πειραματικών μετρήσεων Gradient Tree Boosting}{figure.6.3.0.5}{}}
\@writefile{lof}{\contentsline {figure}{\numberline {6.3.6}{\ignorespaces Ιστόγραμμα ποσοστιαίων διαφορών εκτιμώμενων και πραγματικών πειραματικών μετρήσεων Gradient Tree Boosting}}{45}{figure.6.3.0.6}\protected@file@percent }
\newlabel{fig:grad6}{{6.3.6}{45}{Ιστόγραμμα ποσοστιαίων διαφορών εκτιμώμενων και πραγματικών πειραματικών μετρήσεων Gradient Tree Boosting}{figure.6.3.0.6}{}}
\@writefile{lot}{\contentsline {table}{\numberline {6.3.4}{\ignorespaces Μετρήσεις αξιολόγησης Gradient Tree Boosting}}{45}{table.6.3.0.4}\protected@file@percent }
\newlabel{table:grad4}{{6.3.4}{45}{Μετρήσεις αξιολόγησης Gradient Tree Boosting}{table.6.3.0.4}{}}
\@writefile{toc}{\contentsline {section}{\numberline {6.4}Αποτελέσματα αλγορίθμου Random Forest}{45}{section.6.4}\protected@file@percent }
\babel@aux{english}{}
\babel@aux{greek}{}
\babel@aux{english}{}
\babel@aux{greek}{}
\babel@aux{english}{}
\babel@aux{greek}{}
\babel@aux{english}{}
\babel@aux{greek}{}
\@writefile{lot}{\contentsline {table}{\numberline {6.4.1}{\ignorespaces Σύγκριση παραμέτρων Random forest}}{46}{table.6.4.0.1}\protected@file@percent }
\newlabel{table:rf1}{{6.4.1}{46}{Σύγκριση παραμέτρων Random forest}{table.6.4.0.1}{}}
\@writefile{lof}{\contentsline {figure}{\numberline {6.4.1}{\ignorespaces Διασπορά πραγματικών και εκτιμώμενων μετρήσεων Random forest}}{46}{figure.6.4.0.1}\protected@file@percent }
\newlabel{fig:rf1}{{6.4.1}{46}{Διασπορά πραγματικών και εκτιμώμενων μετρήσεων Random forest}{figure.6.4.0.1}{}}
\@writefile{lof}{\contentsline {figure}{\numberline {6.4.2}{\ignorespaces Ιστόγραμμα διαφορών εκτιμώμενων και πραγματικών πειραματικών μετρήσεων Random forest}}{46}{figure.6.4.0.2}\protected@file@percent }
\newlabel{fig:rf2}{{6.4.2}{46}{Ιστόγραμμα διαφορών εκτιμώμενων και πραγματικών πειραματικών μετρήσεων Random forest}{figure.6.4.0.2}{}}
\@writefile{lof}{\contentsline {figure}{\numberline {6.4.3}{\ignorespaces Ιστόγραμμα ποσοστιαίων διαφορών εκτιμώμενων και πραγματικών πειραματικών μετρήσεων Random forest}}{47}{figure.6.4.0.3}\protected@file@percent }
\newlabel{fig:rf3}{{6.4.3}{47}{Ιστόγραμμα ποσοστιαίων διαφορών εκτιμώμενων και πραγματικών πειραματικών μετρήσεων Random forest}{figure.6.4.0.3}{}}
\@writefile{lot}{\contentsline {table}{\numberline {6.4.2}{\ignorespaces Μετρήσεις αξιολόγησης Random forest}}{47}{table.6.4.0.2}\protected@file@percent }
\newlabel{table:rf2}{{6.4.2}{47}{Μετρήσεις αξιολόγησης Random forest}{table.6.4.0.2}{}}
\@writefile{lot}{\contentsline {table}{\numberline {6.4.3}{\ignorespaces Σύγκριση παραμέτρων Random forest}}{47}{table.6.4.0.3}\protected@file@percent }
\newlabel{table:rf3}{{6.4.3}{47}{Σύγκριση παραμέτρων Random forest}{table.6.4.0.3}{}}
\@writefile{lof}{\contentsline {figure}{\numberline {6.4.4}{\ignorespaces Διασπορά πραγματικών και εκτιμώμενων μετρήσεων Random forest}}{48}{figure.6.4.0.4}\protected@file@percent }
\newlabel{fig:rf4}{{6.4.4}{48}{Διασπορά πραγματικών και εκτιμώμενων μετρήσεων Random forest}{figure.6.4.0.4}{}}
\@writefile{lof}{\contentsline {figure}{\numberline {6.4.5}{\ignorespaces Ιστόγραμμα διαφορών εκτιμώμενων και πραγματικών πειραματικών μετρήσεων Random forest}}{48}{figure.6.4.0.5}\protected@file@percent }
\newlabel{fig:rf5}{{6.4.5}{48}{Ιστόγραμμα διαφορών εκτιμώμενων και πραγματικών πειραματικών μετρήσεων Random forest}{figure.6.4.0.5}{}}
\@writefile{lot}{\contentsline {table}{\numberline {6.4.4}{\ignorespaces Μετρήσεις αξιολόγησης Random forest}}{48}{table.6.4.0.4}\protected@file@percent }
\newlabel{table:rf4}{{6.4.4}{48}{Μετρήσεις αξιολόγησης Random forest}{table.6.4.0.4}{}}
\@writefile{lof}{\contentsline {figure}{\numberline {6.4.6}{\ignorespaces Ιστόγραμμα ποσοστιαίων διαφορών εκτιμώμενων και πραγματικών πειραματικών μετρήσεων Random forest}}{49}{figure.6.4.0.6}\protected@file@percent }
\newlabel{fig:rf6}{{6.4.6}{49}{Ιστόγραμμα ποσοστιαίων διαφορών εκτιμώμενων και πραγματικών πειραματικών μετρήσεων Random forest}{figure.6.4.0.6}{}}
\@writefile{lot}{\contentsline {table}{\numberline {6.5.1}{\ignorespaces Σύγκριση παραμέτρων knn}}{49}{table.6.5.0.1}\protected@file@percent }
\newlabel{table:knn1}{{6.5.1}{49}{Σύγκριση παραμέτρων knn}{table.6.5.0.1}{}}
\@writefile{toc}{\contentsline {section}{\numberline {6.5}Αποτελέσματα αλγορίθμου k-nearest neighbors (knn)}{49}{section.6.5}\protected@file@percent }
\@writefile{lof}{\contentsline {figure}{\numberline {6.5.1}{\ignorespaces Διασπορά πραγματικών και εκτιμώμενων μετρήσεων knn}}{50}{figure.6.5.0.1}\protected@file@percent }
\newlabel{fig:knn1}{{6.5.1}{50}{Διασπορά πραγματικών και εκτιμώμενων μετρήσεων knn}{figure.6.5.0.1}{}}
\@writefile{lof}{\contentsline {figure}{\numberline {6.5.2}{\ignorespaces Ιστόγραμμα διαφορών εκτιμώμενων και πραγματικών πειραματικών μετρήσεων knn}}{50}{figure.6.5.0.2}\protected@file@percent }
\newlabel{fig:knn2}{{6.5.2}{50}{Ιστόγραμμα διαφορών εκτιμώμενων και πραγματικών πειραματικών μετρήσεων knn}{figure.6.5.0.2}{}}
\@writefile{lot}{\contentsline {table}{\numberline {6.5.2}{\ignorespaces Μετρήσεις αξιολόγησης knn}}{50}{table.6.5.0.2}\protected@file@percent }
\newlabel{table:knn2}{{6.5.2}{50}{Μετρήσεις αξιολόγησης knn}{table.6.5.0.2}{}}
\@writefile{lot}{\contentsline {table}{\numberline {6.5.3}{\ignorespaces Σύγκριση παραμέτρων knn}}{50}{table.6.5.0.3}\protected@file@percent }
\newlabel{table:knn3}{{6.5.3}{50}{Σύγκριση παραμέτρων knn}{table.6.5.0.3}{}}
\@writefile{lof}{\contentsline {figure}{\numberline {6.5.3}{\ignorespaces Ιστόγραμμα ποσοστιαίων διαφορών εκτιμώμενων και πραγματικών πειραματικών μετρήσεων knn}}{51}{figure.6.5.0.3}\protected@file@percent }
\newlabel{fig:knn3}{{6.5.3}{51}{Ιστόγραμμα ποσοστιαίων διαφορών εκτιμώμενων και πραγματικών πειραματικών μετρήσεων knn}{figure.6.5.0.3}{}}
\@writefile{lof}{\contentsline {figure}{\numberline {6.5.4}{\ignorespaces Διασπορά πραγματικών και εκτιμώμενων μετρήσεων knn}}{51}{figure.6.5.0.4}\protected@file@percent }
\newlabel{fig:knn4}{{6.5.4}{51}{Διασπορά πραγματικών και εκτιμώμενων μετρήσεων knn}{figure.6.5.0.4}{}}
\@writefile{lof}{\contentsline {figure}{\numberline {6.5.5}{\ignorespaces Ιστόγραμμα διαφορών εκτιμώμενων και πραγματικών πειραματικών μετρήσεων knn}}{52}{figure.6.5.0.5}\protected@file@percent }
\newlabel{fig:knn5}{{6.5.5}{52}{Ιστόγραμμα διαφορών εκτιμώμενων και πραγματικών πειραματικών μετρήσεων knn}{figure.6.5.0.5}{}}
\@writefile{lof}{\contentsline {figure}{\numberline {6.5.6}{\ignorespaces Ιστόγραμμα ποσοστιαίων διαφορών εκτιμώμενων και πραγματικών πειραματικών μετρήσεων knn}}{52}{figure.6.5.0.6}\protected@file@percent }
\newlabel{fig:knn6}{{6.5.6}{52}{Ιστόγραμμα ποσοστιαίων διαφορών εκτιμώμενων και πραγματικών πειραματικών μετρήσεων knn}{figure.6.5.0.6}{}}
\babel@aux{english}{}
\babel@aux{greek}{}
\@writefile{lot}{\contentsline {table}{\numberline {6.5.4}{\ignorespaces Μετρήσεις αξιολόγησης knn}}{53}{table.6.5.0.4}\protected@file@percent }
\newlabel{table:knn4}{{6.5.4}{53}{Μετρήσεις αξιολόγησης knn}{table.6.5.0.4}{}}
\@writefile{lot}{\contentsline {table}{\numberline {6.6.1}{\ignorespaces Σύγκριση παραμέτρων knn}}{53}{table.6.6.0.1}\protected@file@percent }
\newlabel{table:svr1}{{6.6.1}{53}{Σύγκριση παραμέτρων knn}{table.6.6.0.1}{}}
\babel@aux{english}{}
\babel@aux{greek}{}
\@writefile{toc}{\contentsline {section}{\numberline {6.6}Αποτελέσαμτα αλγορίθμου \selectlanguage  {english}Support vector regression (SVR)}{53}{section.6.6}\protected@file@percent }
\babel@aux{greek}{}
\babel@aux{english}{}
\babel@aux{greek}{}
\@writefile{lot}{\contentsline {table}{\numberline {6.6.2}{\ignorespaces Μετρήσεις αξιολόγησης SVR}}{53}{table.6.6.0.2}\protected@file@percent }
\newlabel{table:knn2}{{6.6.2}{53}{Μετρήσεις αξιολόγησης SVR}{table.6.6.0.2}{}}
\@writefile{lof}{\contentsline {figure}{\numberline {6.6.1}{\ignorespaces Διασπορά πραγματικών και εκτιμώμενων μετρήσεων SVR}}{54}{figure.6.6.0.1}\protected@file@percent }
\newlabel{fig:svr1}{{6.6.1}{54}{Διασπορά πραγματικών και εκτιμώμενων μετρήσεων SVR}{figure.6.6.0.1}{}}
\@writefile{lof}{\contentsline {figure}{\numberline {6.6.2}{\ignorespaces Ιστόγραμμα διαφορών εκτιμώμενων και πραγματικών πειραματικών μετρήσεων SVR}}{54}{figure.6.6.0.2}\protected@file@percent }
\newlabel{fig:svr2}{{6.6.2}{54}{Ιστόγραμμα διαφορών εκτιμώμενων και πραγματικών πειραματικών μετρήσεων SVR}{figure.6.6.0.2}{}}
\@writefile{lot}{\contentsline {table}{\numberline {6.6.3}{\ignorespaces Σύγκριση παραμέτρων knn}}{54}{table.6.6.0.3}\protected@file@percent }
\newlabel{table:svr3}{{6.6.3}{54}{Σύγκριση παραμέτρων knn}{table.6.6.0.3}{}}
\babel@aux{english}{}
\babel@aux{greek}{}
\@writefile{lof}{\contentsline {figure}{\numberline {6.6.3}{\ignorespaces Ιστόγραμμα ποσοστιαίων διαφορών εκτιμώμενων και πραγματικών πειραματικών μετρήσεων SVR}}{55}{figure.6.6.0.3}\protected@file@percent }
\newlabel{fig:svr3}{{6.6.3}{55}{Ιστόγραμμα ποσοστιαίων διαφορών εκτιμώμενων και πραγματικών πειραματικών μετρήσεων SVR}{figure.6.6.0.3}{}}
\@writefile{lof}{\contentsline {figure}{\numberline {6.6.4}{\ignorespaces Διασπορά πραγματικών και εκτιμώμενων μετρήσεων SVR}}{55}{figure.6.6.0.4}\protected@file@percent }
\newlabel{fig:svr4}{{6.6.4}{55}{Διασπορά πραγματικών και εκτιμώμενων μετρήσεων SVR}{figure.6.6.0.4}{}}
\@writefile{lof}{\contentsline {figure}{\numberline {6.6.5}{\ignorespaces Ιστόγραμμα διαφορών εκτιμώμενων και πραγματικών πειραματικών μετρήσεων SVR}}{56}{figure.6.6.0.5}\protected@file@percent }
\newlabel{fig:svr5}{{6.6.5}{56}{Ιστόγραμμα διαφορών εκτιμώμενων και πραγματικών πειραματικών μετρήσεων SVR}{figure.6.6.0.5}{}}
\@writefile{lof}{\contentsline {figure}{\numberline {6.6.6}{\ignorespaces Ιστόγραμμα ποσοστιαίων διαφορών εκτιμώμενων και πραγματικών πειραματικών μετρήσεων SVR}}{56}{figure.6.6.0.6}\protected@file@percent }
\newlabel{fig:svr6}{{6.6.6}{56}{Ιστόγραμμα ποσοστιαίων διαφορών εκτιμώμενων και πραγματικών πειραματικών μετρήσεων SVR}{figure.6.6.0.6}{}}
\@writefile{lot}{\contentsline {table}{\numberline {6.6.4}{\ignorespaces Μετρήσεις αξιολόγησης SVR}}{57}{table.6.6.0.4}\protected@file@percent }
\newlabel{table:knn2}{{6.6.4}{57}{Μετρήσεις αξιολόγησης SVR}{table.6.6.0.4}{}}
\@writefile{lof}{\contentsline {figure}{\numberline {6.7.1}{\ignorespaces Σύγκριση MAE}}{57}{figure.6.7.0.1}\protected@file@percent }
\newlabel{fig:mae1}{{6.7.1}{57}{Σύγκριση MAE}{figure.6.7.0.1}{}}
\@writefile{toc}{\contentsline {section}{\numberline {6.7}Σύγκριση αποτελεσμάτων αλγορίθμων}{57}{section.6.7}\protected@file@percent }
\babel@aux{english}{}
\babel@aux{greek}{}
\babel@aux{english}{}
\babel@aux{greek}{}
\@writefile{lot}{\contentsline {table}{\numberline {6.7.1}{\ignorespaces Σύγκριση μετρητών αξιολόγησης πρώτου σετ}}{57}{table.6.7.0.1}\protected@file@percent }
\newlabel{table:ola1}{{6.7.1}{57}{Σύγκριση μετρητών αξιολόγησης πρώτου σετ}{table.6.7.0.1}{}}
\@writefile{lof}{\contentsline {figure}{\numberline {6.7.2}{\ignorespaces Σύγκριση MSE}}{58}{figure.6.7.0.2}\protected@file@percent }
\newlabel{fig:mse1}{{6.7.2}{58}{Σύγκριση MSE}{figure.6.7.0.2}{}}
\@writefile{lof}{\contentsline {figure}{\numberline {6.7.3}{\ignorespaces Σύγκριση RMSE}}{58}{figure.6.7.0.3}\protected@file@percent }
\newlabel{fig:rmse1}{{6.7.3}{58}{Σύγκριση RMSE}{figure.6.7.0.3}{}}
\@writefile{lot}{\contentsline {table}{\numberline {6.7.2}{\ignorespaces Σύγκριση μετρητών αξιολόγησης δεύτερου σετ}}{58}{table.6.7.0.2}\protected@file@percent }
\newlabel{table:ola2}{{6.7.2}{58}{Σύγκριση μετρητών αξιολόγησης δεύτερου σετ}{table.6.7.0.2}{}}
\@writefile{lof}{\contentsline {figure}{\numberline {6.7.4}{\ignorespaces Σύγκριση MAPE}}{59}{figure.6.7.0.4}\protected@file@percent }
\newlabel{fig:mare1}{{6.7.4}{59}{Σύγκριση MAPE}{figure.6.7.0.4}{}}
\@writefile{lof}{\contentsline {figure}{\numberline {6.7.5}{\ignorespaces Σύγκριση MAE}}{59}{figure.6.7.0.5}\protected@file@percent }
\newlabel{fig:mae2}{{6.7.5}{59}{Σύγκριση MAE}{figure.6.7.0.5}{}}
\@writefile{lof}{\contentsline {figure}{\numberline {6.7.6}{\ignorespaces Σύγκριση MSE}}{60}{figure.6.7.0.6}\protected@file@percent }
\newlabel{fig:mse2}{{6.7.6}{60}{Σύγκριση MSE}{figure.6.7.0.6}{}}
\@writefile{lof}{\contentsline {figure}{\numberline {6.7.7}{\ignorespaces Σύγκριση RMSE}}{60}{figure.6.7.0.7}\protected@file@percent }
\newlabel{fig:rmse2}{{6.7.7}{60}{Σύγκριση RMSE}{figure.6.7.0.7}{}}
\@writefile{lof}{\contentsline {figure}{\numberline {6.7.8}{\ignorespaces Σύγκριση MAPE}}{61}{figure.6.7.0.8}\protected@file@percent }
\newlabel{fig:mare2}{{6.7.8}{61}{Σύγκριση MAPE}{figure.6.7.0.8}{}}
\@writefile{toc}{\contentsline {chapter}{\numberline {7}Συμπεράσματα}{63}{chapter.7}\protected@file@percent }
\@writefile{lof}{\addvspace {10\p@ }}
\@writefile{lot}{\addvspace {10\p@ }}
\babel@aux{english}{}
\babel@aux{greek}{}
\babel@aux{english}{}
\babel@aux{greek}{}
\babel@aux{english}{}
\babel@aux{greek}{}
\bibstyle{unsrt}
\bibdata{ref}
\bibcite{geronHandsOnMachineLearning2019}{1}
\bibcite{harringtonMachineLearningAction2012}{2}
\bibcite{joshiPythonRealWorld2016}{3}
\bibcite{kamathMasteringJavaMachine2017}{4}
\bibcite{lantzMachineLearning2013}{5}
\bibcite{mckinneyPythonDataAnalysis2017}{6}
\bibcite{mullerIntroductionMachineLearning2016}{7}
\bibcite{nelliPythonDataAnalytics2018}{8}
\bibcite{RandomForestAlgorithm2018}{9}
\bibcite{raschkaPythonDeeperInsights2016}{10}
\bibcite{reeseMachineLearningEndtoEnd2017}{11}
\bibcite{sarkarPracticalMachineLearning2017}{12}
\bibcite{silvaLearningSciPyNumerical2013}{13}
\bibcite{swamynathanMasteringMachineLearning2019}{14}
\bibcite{kirk2017thoughtful}{15}
\@writefile{toc}{\contentsline {chapter}{Βιβλιογραφία}{65}{chapter.7}\protected@file@percent }
